<?xml version="1.0" encoding="UTF-8"?>
<!DOCTYPE svg PUBLIC "-//W3C//DTD SVG 1.1//EN" "http://www.w3.org/Graphics/SVG/1.1/DTD/svg11.dtd">
<!-- Creator: CorelDRAW X7 -->
<svg xmlns="http://www.w3.org/2000/svg" xml:space="preserve" width="220px" height="179px" version="1.1" style="shape-rendering:geometricPrecision; text-rendering:geometricPrecision; image-rendering:optimizeQuality; fill-rule:evenodd; clip-rule:evenodd"
viewBox="0 0 1267 1029"
 xmlns:xlink="http://www.w3.org/1999/xlink">
 <defs>
  <style type="text/css">
   <![CDATA[
    .str0 {stroke:#707070;stroke-width:17.275;stroke-linecap:round;stroke-linejoin:round}
    .fil0 {fill:none}
    .fil1 {fill:#FFDD30}
   ]]>
  </style>
 </defs>
 <g id="Слой_x0020_1">
  <metadata id="CorelCorpID_0Corel-Layer"/>
  <g id="_91247421520">
   <rect class="fil0 str0" x="343" y="9" width="558" height="680" rx="8" ry="16"/>
   <rect class="fil1 str0" x="343" y="69" width="558" height="160" rx="8" ry="4"/>
   <rect class="fil0 str0" x="562" y="291" width="122" height="111" rx="2" ry="3"/>
   <rect class="fil0 str0" x="727" y="291" width="122" height="111" rx="2" ry="3"/>
   <rect class="fil0 str0" x="562" y="457" width="288" height="111" rx="4" ry="3"/>
   <rect class="fil0 str0" x="396" y="291" width="122" height="111" rx="2" ry="3"/>
   <line class="fil0 str0" x1="398" y1="456" x2="515" y2= "456" />
   <line class="fil0 str0" x1="398" y1="484" x2="515" y2= "484" />
   <line class="fil0 str0" x1="398" y1="512" x2="515" y2= "512" />
   <line class="fil0 str0" x1="398" y1="539" x2="470" y2= "539" />
   <line class="fil0 str0" x1="398" y1="628" x2="849" y2= "628" />
   <path class="fil0 str0" d="M21 340l322 0 0 336c0,7 6,13 13,13l211 0 0 319c0,7 -6,12 -13,12l-533 0c-7,0 -12,-5 -12,-12l0 -655c0,-7 5,-13 12,-13z"/>
   <path class="fil0 str0" d="M12 401l331 0m0 161l-331 0c-2,0 -3,-2 -3,-4l0 -153c0,-2 1,-4 3,-4"/>
   <path class="fil0 str0" d="M228 678l115 0m6 8l0 46c0,0 -1,1 -2,1l-119 0c0,0 -1,-1 -1,-1l0 -53c0,-1 1,-1 1,-1"/>
   <path class="fil0 str0" d="M62 678l120 0c0,0 1,0 1,1l0 53c0,0 -1,1 -1,1l-120 0c0,0 -1,-1 -1,-1l0 -53c0,-1 1,-1 1,-1"/>
   <path class="fil1 str0" d="M230 788l282 0c1,0 3,1 3,3l0 105c0,2 -2,3 -3,3l-282 0c-2,0 -3,-1 -3,-3l0 -105c0,-2 1,-3 3,-3z"/>
   <path class="fil1 str0" d="M61 623c0,0 0,-1 1,-1l281 -4 0 32 -281 0c-1,0 -1,0 -1,-1l0 -26z"/>
   <line class="fil0 str0" x1="64" y1="788" x2="180" y2= "788" />
   <line class="fil0 str0" x1="64" y1="816" x2="180" y2= "816" />
   <line class="fil0 str0" x1="64" y1="844" x2="180" y2= "844" />
   <line class="fil0 str0" x1="263" y1="830" x2="379" y2= "830" />
   <line class="fil0 str0" x1="63" y1="468" x2="282" y2= "468" />
   <line class="fil0 str0" x1="64" y1="871" x2="136" y2= "871" />
   <line class="fil0 str0" x1="263" y1="857" x2="335" y2= "857" />
   <line class="fil0 str0" x1="63" y1="495" x2="198" y2= "495" />
   <line class="fil0 str0" x1="64" y1="960" x2="515" y2= "960" />
   <path class="fil0 str0" d="M1245 340c7,0 13,6 13,13l0 655c0,7 -6,12 -13,12l-532 0c-7,0 -13,-5 -13,-12l0 -319m202 -349l343 0"/>
   <path class="fil0 str0" d="M1036 401c2,0 4,2 4,4l0 153c0,2 -2,4 -4,4l-134 0m0 -161l134 0"/>
   <path class="fil0 str0" d="M1203 401c1,0 1,1 1,1l0 53c0,1 0,2 -1,2l-119 0c-1,0 -1,-1 -1,-2l0 -53c0,0 0,-1 1,-1l119 0"/>
   <path class="fil0 str0" d="M832 689c1,0 2,0 2,1l0 53c0,0 -1,1 -2,1l-78 0c-1,0 -2,-1 -2,-1l0 -53c0,-1 1,-1 2,-1"/>
   <path class="fil0 str0" d="M958 689c1,0 1,0 1,1l0 53c0,0 0,1 -1,1l-79 0c0,0 -1,-1 -1,-1l0 -53c0,-1 1,-1 1,-1m10 0l69 0"/>
   <rect class="fil0 str0" x="1004" y="689" width="81.2702" height="55.2938" rx="1" ry="1"/>
   <rect class="fil0 str0" x="1127" y="689" width="81.2702" height="55.2938" rx="1" ry="1"/>
   <rect class="fil1 str0" x="918" y="788" width="288" height="111" rx="4" ry="3"/>
   <path class="fil1 str0" d="M1207 606c1,0 1,0 1,1l0 42c0,1 0,1 -1,1l-305 0 0 -44 305 0z"/>
   <line class="fil0 str0" x1="755" y1="788" x2="871" y2= "788" />
   <line class="fil0 str0" x1="1084" y1="506" x2="1201" y2= "506" />
   <line class="fil0 str0" x1="755" y1="816" x2="871" y2= "816" />
   <line class="fil0 str0" x1="1084" y1="534" x2="1201" y2= "534" />
   <line class="fil0 str0" x1="755" y1="844" x2="871" y2= "844" />
   <line class="fil0 str0" x1="954" y1="830" x2="1070" y2= "830" />
   <line class="fil0 str0" x1="1084" y1="562" x2="1134" y2= "562" />
   <line class="fil0 str0" x1="755" y1="871" x2="827" y2= "871" />
   <line class="fil0 str0" x1="954" y1="857" x2="1026" y2= "857" />
   <path class="fil0 str0" d="M902 495l20 0m-20 -27l88 0"/>
   <line class="fil0 str0" x1="755" y1="960" x2="1206" y2= "960" />
  </g>
 </g>
</svg>
