<?xml version="1.0" encoding="UTF-8"?>
<!DOCTYPE svg PUBLIC "-//W3C//DTD SVG 1.1//EN" "http://www.w3.org/Graphics/SVG/1.1/DTD/svg11.dtd">
<!-- Creator: CorelDRAW X7 -->
<svg xmlns="http://www.w3.org/2000/svg" xml:space="preserve" width="175px" height="178px" version="1.1" style="shape-rendering:geometricPrecision; text-rendering:geometricPrecision; image-rendering:optimizeQuality; fill-rule:evenodd; clip-rule:evenodd"
viewBox="0 0 718 732"
 xmlns:xlink="http://www.w3.org/1999/xlink">
 <defs>
  <style type="text/css">
   <![CDATA[
    .str0 {stroke:#707070;stroke-width:12.2953;stroke-linecap:round;stroke-linejoin:round}
    .fil0 {fill:none}
    .fil2 {fill:#707070}
    .fil1 {fill:#FFE040}
   ]]>
  </style>
 </defs>
 <g id="Слой_x0020_1">
  <metadata id="CorelCorpID_0Corel-Layer"/>
  <g id="_91250597968">
   <path class="fil0 str0" d="M65 49l40 0m17 0l69 0m18 0l69 0m17 0l70 0m17 0l69 0m18 0l69 0m17 0l70 0m17 0l40 0c16,0 29,14 29,30l0 591c0,16 -13,29 -29,29l-617 0c-16,0 -30,-13 -30,-29l0 -591c0,-16 14,-30 30,-30"/>
   <path class="fil1 str0" d="M38 75c-17,0 -32,14 -32,30l0 591c0,16 13,29 29,29l618 0c16,0 29,-9 29,-26l-624 0c0,0 -23,-9 -23,-29 0,-20 3,-595 3,-595z"/>
   <path class="fil1 str0" d="M366 6l15 0c1,0 1,0 1,1l0 63c0,1 0,1 -1,1l-15 0c-1,0 -1,0 -1,-1l0 -63c0,-1 0,-1 1,-1zm-260 0l15 0c1,0 1,0 1,1l0 63c0,1 0,1 -1,1l-15 0c-1,0 -1,0 -1,-1l0 -63c0,-1 0,-1 1,-1zm86 0l16 0c0,0 1,0 1,1l0 63c0,1 -1,1 -1,1l-16 0c0,0 -1,0 -1,-1l0 -63c0,-1 1,-1 1,-1zm87 0l16 0c0,0 0,0 0,1l0 63c0,1 0,1 0,1l-16 0c-1,0 -1,0 -1,-1l0 -63c0,-1 0,-1 1,-1zm346 0l16 0c1,0 1,0 1,1l0 63c0,1 0,1 -1,1l-16 0c0,0 0,0 0,-1l0 -63c0,-1 0,-1 0,-1zm-86 0l16 0c0,0 0,0 0,1l0 63c0,1 0,1 0,1l-16 0c-1,0 -1,0 -1,-1l0 -63c0,-1 0,-1 1,-1zm-87 0l16 0c0,0 1,0 1,1l0 63c0,1 -1,1 -1,1l-16 0c0,0 -1,0 -1,-1l0 -63c0,-1 1,-1 1,-1z"/>
   <rect class="fil2" x="152" y="333" width="36.8291" height="36.8291" rx="7" ry="7"/>
   <rect class="fil2" x="152" y="463" width="36.8291" height="36.8291" rx="7" ry="7"/>
   <rect class="fil2" x="152" y="593" width="36.8291" height="36.8291" rx="7" ry="7"/>
   <circle class="fil1 str0" cx="301" cy="352" r="47"/>
   <circle class="fil1 str0" cx="431" cy="352" r="47"/>
   <circle class="fil1 str0" cx="561" cy="352" r="47"/>
   <rect class="fil2" x="282" y="203" width="36.8291" height="36.8291" rx="7" ry="7"/>
   <rect class="fil2" x="282" y="333" width="36.8291" height="36.8291" rx="7" ry="7"/>
   <rect class="fil2" x="282" y="463" width="36.8291" height="36.8291" rx="7" ry="7"/>
   <rect class="fil2" x="282" y="593" width="36.8291" height="36.8291" rx="7" ry="7"/>
   <rect class="fil2" x="412" y="203" width="36.8291" height="36.8291" rx="7" ry="7"/>
   <rect class="fil2" x="412" y="333" width="36.8291" height="36.8291" rx="7" ry="7"/>
   <rect class="fil2" x="412" y="463" width="36.8291" height="36.8291" rx="7" ry="7"/>
   <rect class="fil2" x="412" y="593" width="36.8291" height="36.8291" rx="7" ry="7"/>
   <rect class="fil2" x="542" y="203" width="36.8291" height="36.8291" rx="7" ry="7"/>
   <rect class="fil2" x="542" y="333" width="36.8291" height="36.8291" rx="7" ry="7"/>
   <rect class="fil2" x="542" y="463" width="36.8291" height="36.8291" rx="7" ry="7"/>
   <line class="fil0 str0" x1="87" y1="140" x2="659" y2= "140" />
  </g>
 </g>
</svg>
