<?xml version="1.0" encoding="UTF-8"?>
<!DOCTYPE svg PUBLIC "-//W3C//DTD SVG 1.1//EN" "http://www.w3.org/Graphics/SVG/1.1/DTD/svg11.dtd">
<!-- Creator: CorelDRAW X7 -->
<svg xmlns="http://www.w3.org/2000/svg" xml:space="preserve" width="25px" height="23px" version="1.1" style="shape-rendering:geometricPrecision; text-rendering:geometricPrecision; image-rendering:optimizeQuality; fill-rule:evenodd; clip-rule:evenodd"
viewBox="0 0 175 162"
 xmlns:xlink="http://www.w3.org/1999/xlink">
 <defs>
  <style type="text/css">
   <![CDATA[
    .fil0 {fill:#0E517D;fill-rule:nonzero}
   ]]>
  </style>
 </defs>
 <g id="Слой_x0020_1">
  <metadata id="CorelCorpID_0Corel-Layer"/>
  <path class="fil0" d="M163 71c2,-3 6,-3 9,-1 3,2 4,7 2,10 -24,31 -78,78 -78,78l-4 4 -5 -4c-37,-33 -120,-91 -73,-142 21,-22 55,-20 78,-1 6,-5 16,-12 32,-14 3,-1 7,2 7,6 1,3 -2,7 -5,7 -20,3 -29,15 -29,15l-5 6 -6 -6c-14,-18 -45,-21 -62,-3 -37,40 38,91 68,118 13,-12 52,-48 71,-73z"/>
 </g>
</svg>
