<?xml version="1.0" encoding="UTF-8"?>
<!DOCTYPE svg PUBLIC "-//W3C//DTD SVG 1.1//EN" "http://www.w3.org/Graphics/SVG/1.1/DTD/svg11.dtd">
<!-- Creator: CorelDRAW X7 -->
<svg xmlns="http://www.w3.org/2000/svg" xml:space="preserve" width="83px" height="129px" version="1.1" style="shape-rendering:geometricPrecision; text-rendering:geometricPrecision; image-rendering:optimizeQuality; fill-rule:evenodd; clip-rule:evenodd"
viewBox="0 0 91 141"
 xmlns:xlink="http://www.w3.org/1999/xlink">
 <defs>
  <style type="text/css">
   <![CDATA[
    .str0 {stroke:#0e9edb;stroke-width:3.27395;stroke-linecap:round;stroke-linejoin:round}
    .fil0 {fill:none}
   ]]>
  </style>
 </defs>
 <g id="Слой_x0020_1">
  <metadata id="CorelCorpID_0Corel-Layer"/>
  <path class="fil0 str0" d="M89 139l-33 0m33 -42c-1,-1 -2,-3 -2,-5 0,-1 1,-3 2,-4m-17 16c0,0 2,18 -15,28m-1 -28l33 0m-33 -23l33 0m-63 46c1,0 3,1 3,3 0,2 -2,3 -3,3 -2,0 -4,-1 -4,-3 0,-2 2,-3 4,-3m-24 -7l48 0m-24 19l-19 0c-3,0 -5,-2 -5,-6l0 -80c0,-3 2,-6 5,-6l37 0c3,0 6,3 6,6l0 80c0,4 -3,6 -6,6l-18 0m-10 -98l0 -31c0,-4 4,-8 9,-8l64 0"/>
 </g>
</svg>
