<?xml version="1.0" encoding="UTF-8"?>
<!DOCTYPE svg PUBLIC "-//W3C//DTD SVG 1.1//EN" "http://www.w3.org/Graphics/SVG/1.1/DTD/svg11.dtd">
<!-- Creator: CorelDRAW X7 -->
<svg xmlns="http://www.w3.org/2000/svg" xml:space="preserve" width="32px" height="33px" version="1.1" style="shape-rendering:geometricPrecision; text-rendering:geometricPrecision; image-rendering:optimizeQuality; fill-rule:evenodd; clip-rule:evenodd"
viewBox="0 0 883 911"
 xmlns:xlink="http://www.w3.org/1999/xlink">
 <defs>
  <style type="text/css">
   <![CDATA[
    .str0 {stroke:#2B2A29;stroke-width:15.8535;stroke-linecap:round;stroke-linejoin:round}
    .fil0 {fill:none}
   ]]>
  </style>
 </defs>
 <g id="Слой_x0020_1">
  <metadata id="CorelCorpID_0Corel-Layer"/>
  <path class="fil0 str0" d="M824 8c28,0 51,23 51,50l0 794c0,28 -23,51 -51,51l-766 0c-27,0 -50,-23 -50,-51l0 -794c0,-27 23,-50 50,-50l766 0m-676 531c0,-15 0,-42 0,-59 0,-18 6,-28 16,-39 10,-10 17,-14 17,-14 0,0 10,14 39,32 30,17 53,15 53,15 0,0 23,2 52,-15 30,-18 40,-32 40,-32 0,0 6,4 16,14 10,11 17,21 17,39 0,17 0,44 0,59m-125 -349c47,0 86,51 86,113 0,63 -39,114 -86,114 -47,0 -86,-51 -86,-114 0,-62 39,-113 86,-113m-181 601l699 0m-699 -84l699 0m-252 -252l252 0m-252 -84l252 0m-252 -83l252 0m-252 -84l252 0m-357 -112c12,0 21,9 21,21l0 461c0,12 -9,21 -21,21l-321 0c-12,0 -21,-9 -21,-21l0 -461c0,-12 9,-21 21,-21l321 0"/>
 </g>
</svg>
