<?xml version="1.0" encoding="UTF-8"?>
<!DOCTYPE svg PUBLIC "-//W3C//DTD SVG 1.1//EN" "http://www.w3.org/Graphics/SVG/1.1/DTD/svg11.dtd">
<!-- Creator: CorelDRAW X7 -->
<svg xmlns="http://www.w3.org/2000/svg" xml:space="preserve" width="22px" height="22px" version="1.1" style="shape-rendering:geometricPrecision; text-rendering:geometricPrecision; image-rendering:optimizeQuality; fill-rule:evenodd; clip-rule:evenodd"
viewBox="0 0 269 266"
 xmlns:xlink="http://www.w3.org/1999/xlink">
 <defs>
  <style type="text/css">
   <![CDATA[
    .fil0 {fill:#0E517D;fill-rule:nonzero}
   ]]>
  </style>
 </defs>
 <g id="Слой_x0020_1">
  <metadata id="CorelCorpID_0Corel-Layer"/>
  <path class="fil0" d="M89 145l-63 0c-14,0 -26,-12 -26,-26l0 -93c0,-14 12,-26 26,-26l128 0c14,0 26,12 26,26l0 41 63 0c14,0 26,12 26,26l0 93c0,15 -10,25 -25,25l-12 0 0 55 -90 -54 -27 0c-14,0 -26,-11 -26,-26l0 -41zm-63 -25l63 0 0 -27c0,-14 12,-26 26,-26l41 0 0 -41c0,-1 -1,-1 -1,-1l0 0c0,0 -1,-1 -1,-1l-128 0c-1,0 -1,1 -1,1 0,0 -1,0 -1,1l0 93c0,0 1,1 1,1 0,0 0,0 1,0zm127 70l55 34 0 -38 35 2c0,0 1,0 1,-1 0,0 0,0 0,-1l0 -93c0,0 0,0 0,-1 0,0 -1,0 -1,0l-128 0c-1,0 -1,0 -1,0 0,1 -1,1 -1,1l0 93c0,1 1,1 1,1 0,1 0,1 1,1l31 0 4 0 3 2z"/>
 </g>
</svg>
