<?xml version="1.0" encoding="UTF-8"?>
<!DOCTYPE svg PUBLIC "-//W3C//DTD SVG 1.1//EN" "http://www.w3.org/Graphics/SVG/1.1/DTD/svg11.dtd">
<!-- Creator: CorelDRAW X7 -->
<svg xmlns="http://www.w3.org/2000/svg" xml:space="preserve" width="61px" height="61px" version="1.1" style="shape-rendering:geometricPrecision; text-rendering:geometricPrecision; image-rendering:optimizeQuality; fill-rule:evenodd; clip-rule:evenodd"
viewBox="0 0 119 119"
 xmlns:xlink="http://www.w3.org/1999/xlink">
 <defs>
  <style type="text/css">
   <![CDATA[
    .str0 {stroke:#64558D;stroke-width:3.88505}
    .str1 {stroke:#FEFEFE;stroke-width:5.82784;stroke-linecap:round;stroke-linejoin:round}
    .fil0 {fill:none}
   ]]>
  </style>
 </defs>
 <g id="Слой_x0020_1">
  <metadata id="CorelCorpID_0Corel-Layer"/>
  <g id="_193944051264">
   <circle class="fil0 str0" cx="59" cy="59" r="57"/>
   <line class="fil0 str1" x1="42" y1="43" x2="42" y2= "78" />
   <line class="fil0 str1" x1="32" y1="75" x2="32" y2= "78" />
   <line class="fil0 str1" x1="88" y1="43" x2="88" y2= "78" />
   <path class="fil0 str1" d="M42 51c0,0 9,-12 17,-5"/>
   <path class="fil0 str1" d="M69 43c0,0 0,19 0,26 0,6 3,8 8,8 6,0 11,-3 11,-11"/>
  </g>
 </g>
</svg>
