<svg xmlns="http://www.w3.org/2000/svg" width="341.94" height="535.25" viewBox="0 0 341.94 535.25">
  <defs>
    <style>
      .cls-1 {
        fill: #fff;
        stroke: #e8e8e8;
        stroke-width: 2px;
        fill-rule: evenodd;
      }
    </style>
  </defs>
  <path id="Back2" class="cls-1" d="M1623,336c86.34,11.84,106,17,148,14s64,24,54,115-21,183-9,250,16,162-89,149-162.93-13.724-189-13c-36,1-60-51-47-144s19-186,10-246S1448,312,1623,336Z" transform="translate(-1486.44 -330.969)"/>
</svg>
