<svg xmlns="http://www.w3.org/2000/svg" width="348.19" height="518.187" viewBox="0 0 348.19 518.187">
  <defs>
    <style>
      .cls-1 {
        fill: none;
        stroke: #e8e8e8;
        stroke-width: 2px;
        fill-rule: evenodd;
      }
    </style>
  </defs>
  <path id="ramka1" class="cls-1" d="M1636,347c86.34,11.84,94,0,136-3s64,11,54,102-9,239,3,306,18,111-87,98-171.93,4.276-198,5c-36,1-60-25-47-118s8-263-1-323S1461,323,1636,347Z" transform="translate(-1488.19 -337.844)"/>
</svg>
